{
    "text": {
        "header": "Informe seus Dados",
        "thankyou": "Obrigado por estar conosco"
    },
    "fields": [
        {
            "name": "cep",
            "type": "CEP",
            "required": true
        },
        {
            "name": "cpf",
            "type": "CPF",
            "required": true
        },
        {
            "name": "gender",
            "type": "Gender",
            "required": true
        },
        {
            "data": {
                "options": {
                    "manha": "Manhã",
                    "noite": "Noite",
                    "tarde": "Tarde"
                }
            },
            "name": "periodo_contato",
            "type": "CustomSelect",
            "label": "Melhor Período para Contato",
            "required": false
        },
        {
            "hint": "Informe o seu Apelido",
            "name": "apelido",
            "type": "CustomInputText",
            "label": "Apelido de login"
        },
        {
            "data": {
                "options": {
                    "paulista": "Paulista",
                    "consolacao": "Consolação",
                    "vila_madalena": "Vila Madalena"
                }
            },
            "name": "estacao_preferida",
            "type": "CustomInputCheck",
            "label": "Estação Preferida"
        }
    ]
};

{
    "data": {
        "mapping": {
            "cep": "cep",
            "name": "nome",
            "gender": "sexo",
            "apelido": "nickname",
            "periodo_contato": "periodo_contato",
            "estacao_preferida": "estacao_preferida"
        }
    },
    "transport_settings": {
        "params": {
            "key": "abcdefghijklmnopqrstuvxz"
        },
        "endpoint": "http://localhost/endpoint.php"
    }
}
